{
    "title": "Post containing multiple images",
    "date": "2020-02-14",
    "summary": "This post contains text surrounding several images depicting charts. One of the charts has been assigned the representative image in case we want to show an image in our theme.",
    "image": "chart1.png"
}
